{
  "$schema": "http://json-schema.org/draft-04/schema#",
  "type": "object",
  "allOf": [
    { "$ref": "7337.dk:definitions:businessobject" },
    {
      "properties": {
        "key":          { "type": "string" },
        "name":         { "type": "string" },
    
        "state":        { "enum": [ "active", "inactive" ] },
    
        "parent":       { "$ref": "7337.dk:definitions:reference" },
        "associated":   { "$ref": "7337.dk:definitions:reference_indexed" },
        "owner":        { "$ref": "7337.dk:definitions:reference" },
        "residence":    { "$ref": "7337.dk:definitions:reference_indexed" },
        "contact":      { "$ref": "7337.dk:definitions:reference_indexed" },
        "industry":     { "$ref": "7337.dk:definitions:reference" },
        "task":         { "$ref": "7337.dk:definitions:reference_indexed" },
        "type":         { "$ref": "7337.dk:definitions:reference" },
        "production":   { "$ref": "7337.dk:definitions:reference" },
        "tax":          { "$ref": "7337.dk:definitions:reference" },
        "employee":     { "$ref": "7337.dk:definitions:reference_indexed" }
      },
      "additionalProperties": false
    }
  ]
}