{"objects":[{
  "id": "18f643cd-5fa8-5f1e-b16e-a6092c91afaf",
  "type": "application/json",
  "registrations": [
    {
      "schema": "http://reflective.dk/classification/facet",
      "validity": [
        {
          "input": {
            "key": "local_classification",
            "name": "Vores klassifikationer",
            "state": "published",
            "classification": {
              "id": "1379f8e2-2f63-586e-b15c-895aca71ccec"
            }
          }
        }
      ]
    }
  ]
}]}