{
  "organisation" : [
      {
          "reference": {
              "uuid": "c5a7f3e0-5696-409b-abc7-9b79ca9f33f8",
              "type": "/businessobjects/organisation",
              "role": "owner"
          }
      }
    ]
}