{
  "$schema": "http://json-schema.org/draft-04/schema#",
  "type": "object",
  "allOf": [
    { "$ref": "7337.dk:definitions:businessobject" },
    {
      "properties": {
        "key":          { "type": "string" },
        "name":         { "type": "string" },
        "description":  { "type": "string" },
        "level":        { "type": "string" },
        "structure":    { "type": "string" },
        "copyright":    { "type": "string" },
        "supplement":   { "type": "string" },
    
        "state":        { "enum": [ "published", "not_published" ] },
    
        "owner":        { "$ref": "7337.dk:definitions:reference" },
        "responsible":  { "$ref": "7337.dk:definitions:reference" },
        "editor":       { "$ref": "7337.dk:definitions:reference_indexed" },
        "classification": { "$ref": "7337.dk:definitions:reference" },
        "law":          { "$ref": "7337.dk:definitions:reference_indexed" }
      },
      "additionalProperties": false
    }
  ]
}