{
  "$schema": "http://json-schema.org/draft-04/schema#",
  "type": "object",
  "allOf": [
    { "$ref": "7337.dk:definitions:businessobject" },
    {
      "properties": {
        "key":          { "type": "string" },
        "name":         { "type": "string" },
        "cvr":          { "type": "string" },
        "se":           { "type": "string" },

        "residence":    { "$ref": "7337.dk:definitions:reference_indexed" },
        "contact":      { "$ref": "7337.dk:definitions:reference_indexed" }
      },
      "additionalProperties": false
    }
  ]
}