{
  "key" : "yes",
  "name" : "Digitaliser",
  
  "state" : "active",
  
  "owner": {
    "uuid": "6647f34a-13fa-504a-ad75-8c8e76cd5cbe"
  },
  "parent" : {
    "uuid": "6647f34a-13fa-504a-ad75-8c8e76cd5cbe"
  },
  "type": {
    "uuid": "6647f34a-13fa-504a-ad75-8c8e76cd5cbe"
  },
  "task": {
    "kle:emne:85.11.00": {
      "uuid": "6647f34a-13fa-504a-ad75-8c8e76cd5cbe"
    },
    "kle:emne:85.13.00": {
      "uuid": "6647f34a-13fa-504a-ad75-8c8e76cd5cbe"
    }
  },
  "associated": {
    "1": {
      "uuid": "6647f34a-13fa-504a-ad75-8c8e76cd5cbe"
    },
    "2": {
      "uuid": "6647f34a-13fa-504a-ad75-8c8e76cd5cbe"
    }
  },
  "contact": {
    "email": {
      "urn": "digitaliser@denmark.eu"
    },
    "web": {
      "urn": "digitaliser.denmark.eu"
    }
  }
}
