{
  "id": "7337.dk:definitions:businessobject",
  "type": "object",

  "properties": {
      "uuid":         { "type": "string", "pattern": "^[a-f0-9]{8}-[a-f0-9]{4}-[a-f0-9]{4}-[a-f0-9]{4}-[a-f0-9]{12}$" },
      "lifecycle":    { "enum": [ "local", "imported", "passivated", "removed" ] }
  }
}