{
  "definitions": {
    "reference": {
      "type": "object",
      "properties": {
        "type":   { "type": "string" },
        "name":   { "type": "string" },
        "role":   { "type": "string" },
      }
    },

    "definitions": {
    "relation": {
      "type": "object",
      "properties": {
        "reference": { "$ref": "#/definitions/reference" },
        "digest": { "$ref": "#/definitions/digest" }  
      }
    },

    "digest": {
      "type": "object",
      "properties": {
        "select":     { "type": "string" },
        "outgoing":   { "type": "array", "items": [ { "$ref": "#/definitions/relation" } ]},
        "incomming":  { "type": "array", "items": [ { "$ref": "#/definitions/relation" } ]}
      }
    }
  },
  
  "id": "/definitions/search",
  "type": "object",
  "properties": {
    "query":  { "type": "string" },
    "digest": { "$ref": "#/definitions/digest" }
  },
  "additionalProperties": false,
  "required": ["query"]
}