{
  "uuid": "c5a7f3e0-5696-409b-abc7-9b79ca9f33ff",
  "lifecycle": "local",

  "name": [
  {
    "registration": {
      "rid": "73d5379e-052a-4aa6-885c-5e608865cb91",
      "user": {
        "reference": {
          "urn": "urn:user:none",
          "type": "/businessobjects/user"
        }
      },
      "from": "2003-03-03T03:03:03.333Z",
      "operation": "create"
    },
    "validity": {
      "from": "2002-02-02T02:02:02.222Z",
      "note": "",
      "actor": {
        "reference": {
          "urn": "urn:kommune:skanderborg",
          "type": "/businessobjects/organisation"
        }
      }
    },
    "firstname": "A",
    "middelname": "A",
    "surname": "A"
  },
  {
    "registration": {
      "rid": "73d5379e-052a-4aa6-885c-5e608865cb92",
      "user": {
        "reference": {
          "urn": "urn:user:none",
          "type": "/businessobjects/user"
        }
      },
      "from": "2006-06-06T06:06:06.666Z",
      "operation": "update"
    },
    "validity": {
      "from": "2006-06-06T06:06:06.666Z",
      "to": "2008-08-08T08:08:08.888Z",
      "insert": true,
      "note": "",
      "actor": {
        "reference": {
          "urn": "urn:kommune:skanderborg",
          "type": "/businessobjects/organisation"
        }
      }
    },
    "firstname": "B",
    "middelname": "B",
    "surname": "B"
  },
  {
    "registration": {
      "rid": "73d5379e-052a-4aa6-885c-5e608865cb93",
      "user": {
        "reference": {
          "urn": "urn:user:none",
          "type": "/businessobjects/user"
        }
      },
      "from": "2008-08-08T08:08:08.888Z",
      "operation": "update"
    },
    "validity": {
      "from": "2005-05-05T05:05:05.555Z",
      "to": "2007-07-07T07:07:07.777Z",
      "note": "",
      "actor": {
        "reference": {
          "urn": "urn:kommune:skanderborg",
          "type": "/businessobjects/organisation"
        }
      }
    },
    "firstname": "C",
    "middelname": "C",
    "surname": "C"
  },
  {
    "registration": {
      "rid": "73d5379e-052a-4aa6-885c-5e608865cb94",
      "user": {
        "reference": {
          "urn": "urn:user:none",
          "type": "/businessobjects/user"
        }
      },
      "from": "2012-12-12T12:12:12.012Z",
      "operation": "update"
    },
    "validity": {
      "from": "2006-06-06T06:06:06.666Z",
      "to": "2008-08-08T08:08:08.888Z",
      "note": "",
      "actor": {
        "reference": {
          "urn": "urn:kommune:skanderborg",
          "type": "/businessobjects/organisation"
        }
      }
    },
    "firstname": "E",
    "middelname": "E",
    "surname": "E"
  },
  {
    "registration": {
      "rid": "73d5379e-052a-4aa6-885c-5e608865cb95",
      "user": {
        "reference": {
          "urn": "urn:user:none",
          "type": "/businessobjects/user"
        }
      },
      "from": "2010-10-10T10:10:10.010Z",
      "operation": "update"
    },
    "validity": {
      "from": "2012-12-12T12:12:12.012Z",
      "note": "",
      "actor": {
        "reference": {
          "urn": "urn:kommune:skanderborg",
          "type": "/businessobjects/organisation"
        }
      }
    },
    "firstname": "D",
    "middelname": "D",
    "surname": "D"
  }
  ],
  
  "address": [
  {
    "registration": {
      "rid": "73d5379e-052a-4aa6-885c-5e608865cb91",
      "user": {
        "reference": {
          "urn": "urn:user:none",
          "type": "/businessobjects/user"
        }
      },
      "from": "2003-03-03T03:03:03.333Z",
      "operation": "create"
    },
    "validity": {
      "from": "2003-03-03T03:03:03.333Z",
      "note": "",
      "index": "1",
      "actor": {
        "reference": {
          "urn": "urn:kommune:skanderborg",
          "type": "/businessobjects/organisation"
        }
      }
    },
    "reference": {
      "uuid": "c5a7f3e0-5696-409b-abc7-9b79ca9f33f8",
      "type": "/businessobjects/address",
      "role": "home"
    }
  },
  {
    "registration": {
      "rid": "73d5379e-052a-4aa6-885c-5e608865cb92",
      "user": {
        "reference": {
          "urn": "urn:user:none",
          "type": "/businessobjects/user"
        }
      },
      "from": "2004-04-04T04:04:04.444Z",
      "operation": "update"
    },
    "validity": {
      "from": "2004-04-04T04:04:04.444Z",
      "note": "",
      "index": "1",
      "actor": {
        "reference": {
          "urn": "urn:kommune:skanderborg",
          "type": "/businessobjects/organisation"
        }
      }
    },
    "reference": {
      "uuid": "448078fc-e9c2-11e5-9ce9-5e5517507c66",
      "type": "/businessobjects/address",
      "role": "work"
    }
  },
  {
    "registration": {
      "rid": "73d5379e-052a-4aa6-885c-5e608865cb91",
      "user": {
        "reference": {
          "urn": "urn:user:none",
          "type": "/businessobjects/user"
        }
      },
      "from": "2003-03-03T03:03:03.333Z",
      "operation": "create"
    },
    "validity": {
      "from": "2003-03-03T03:03:03.333Z",
      "note": "",
      "index": "2",
      "actor": {
        "reference": {
          "urn": "urn:kommune:skanderborg",
          "type": "/businessobjects/organisation"
        }
      }
    },
    "reference": {
      "uuid": "ff0f7232-e9c1-11e5-9ce9-5e5517507c66",
      "type": "/businessobjects/address",
      "role": "home"
    }
  }
  ]
}
